2 Préparer vos données | Cartographie avec R à l’usage des statisticiens
…
2.3.5 Discrétiser des valeurs

2.3.6 Recoder des facteurs

On importe ensuite les données qu’on souhaite visualiser et on en examine le contenu.

On va ici analyser la répartition du nombre de projets dans l’enquête BMO 2019 et la difficulté de recrutement pour quelques métiers. Les données ici ont été préparées en amont pour simplifier.

library(here)
bmo_2019 <- read_rds(here("data/dataset/bmo_2019.rds")) # cette instruction charge un fichier au format rds

bmo_2019

## # A tibble: 26,737 x 8
##    annee fap87 reg   dep   bassin_bmo nb_proj_tot nb_proj_diff nb_proj_sais
##    <dbl> <chr> <chr> <chr> <chr>            <dbl>        <dbl>        <dbl>
##  1  2019 A0Z   01    971   0101             232.          75.8         6.55
##  2  2019 A0Z   01    971   0102             172.         128.        163.  
##  3  2019 A0Z   01    971   0103              16.8         16.8        13.8 
##  4  2019 A0Z   01    971   0105              60.8         26.5         0   
##  5  2019 A0Z   02    972   0201              53.4         32.9         2   
##  6  2019 A0Z   02    972   0202             116.          53.1        42.2 
##  7  2019 A0Z   02    972   0203             104.          30.6        76.7 
##  8  2019 A0Z   02    972   0204              33.6         18.6        10   
##  9  2019 A0Z   03    973   0301              42.7         23.5        12.8 
## 10  2019 A0Z   03    973   0302              30.1         21.1         0   
## # ... with 26,727 more rows
…
bmo_2019_dep

## # A tibble: 104 x 5
##    dep   nb_proj_tot nb_proj_diff part_diff part_diff_classes
##    <chr>       <dbl>        <dbl>     <dbl> <fct>            
##  1 01         18464.       10859.      58.8 50-60 %          
##  2 02         18418.        9851.      53.5 50-60 %          
##  3 03          9394.        4517.      48.1 40-50 %          
##  4 04          9686.        4509.      46.6 40-50 %          
##  5 05         12376.        5166.      41.7 40-50 %          
##  6 06         54174.       25030.      46.2 40-50 %          
##  7 07         15975.        7351.      46.0 40-50 %          
##  8 08          6233.        3422.      54.9 50-60 %          
##  9 09          6454.        2327.      36.1 Moins de 40 %    
## 10 10         15068.        6773.      44.9 40-50 %          
## # ... with 94 more rows
…
