3 Réaliser les cartes | Cartographie avec R à l’usage des statisticiens
…
3.4 Ajouter les valeurs

Pour afficher les valeurs sur la carte, on repart des centroïdes. On en extrait les coordonnées pour avoir pour chaque point, localisé par un X et un Y, une valeur à afficher.

bmo_2019_dep_shp_centre_label <- bmo_2019_dep_shp_centre %>% 
  st_coordinates() %>% # on récupère les coordonnées des centroids
  as_tibble() %>% 
  bind_cols(part_diff = bmo_2019_dep_shp_centre$part_diff) %>% # on ajoute la colonne à afficher
  mutate(part_diff = paste0(round(part_diff, 0), "%")) # on l'arrondi à 0 en ajoutant un % derrière

bmo_2019_dep_shp_centre_label

## # A tibble: 101 x 3
##           X        Y part_diff
##       <dbl>    <dbl> <chr>    
##  1  881439. 6558221. 59%      
##  2  740400. 6940204. 53%      
##  3  714465. 6588216. 48%      
##  4  959608. 6339443. 47%      
##  5  958609. 6401410. 42%      
##  6 1030352. 6324028. 46%      
##  7  812754. 6406862. 46%      
##  8  818627. 6947523. 55%      
##  9  577731. 6203547. 36%      
## 10  786154. 6801093. 45%      
## # ... with 91 more rows
