4 Données spatiales | Cartographie avec R à l’usage des statisticiens
…
shp_dep <- st_read(here("data/shp/DEP_2018.shp"))

## Reading layer `DEP_2018' from data source `D:\r-cartostat\data\shp\DEP_2018.shp' using driver `ESRI Shapefile'
## Simple feature collection with 101 features and 2 fields
## geometry type:  MULTIPOLYGON
## dimension:      XY
## bbox:           xmin: 99216.86 ymin: 5988964 xmax: 1242426 ymax: 7110480
## epsg (SRID):    NA
## proj4string:    +proj=lcc +lat_1=49 +lat_2=44 +lat_0=46.5 +lon_0=3 +x_0=700000 +y_0=6600000 +ellps=GRS80 +units=m +no_defs

On peut en visualiser le contenu. On observe qu’on a un fichier avec une colonne DEP, qui contient le code du département, ainsi qu’une colonne geometry qui contient les spécifications spatiales.

shp_dep

## # A tibble: 101 x 3
##    DEP   nom                                                                                           geometry
##    <fct> <fct>                                                                               <MULTIPOLYGON [m]>
##  1 01    Ain                   (((858244 6525233, 858160 6525176, 858021 6525181, 857707 6525291, 856979 65251~
##  2 02    Aisne                 (((761608 6918644, 761618 6918596, 761955 6918092, 762148 6917847, 762406 69175~
##  3 03    Allier                (((646325 6582731, 646239 6582717, 646221 6582882, 646441.5 6582945, 646656 658~
##  4 04    Alpes-de-Haute-Prove~ (((972562 6298663, 972448 6298704, 972244 6298936, 972250 6299011, 972221 62991~
##  5 05    Hautes-Alpes          (((957775 6377367, 957800 6377362, 957835 6377367, 958215.5 6376992, 958419.4 6~
##  6 06    Alpes-Maritimes       (((1028846 6276756, 1028832 6276766, 1028262 6276909, 1027850 6276933, 1027396 ~
##  7 07    Ardèche               (((816772 6361377, 816547 6361379, 816203 6361362, 816167 6361337, 815936 63611~
##  8 08    Ardennes              (((863817 6940406, 863638 6940492, 863519 6940624, 863501 6940709, 863527 69408~
##  9 09    Ariège                (((576341 6173797, 576310 6173792, 575949 6173705, 575599 6173683, 575524 61736~
## 10 10    Aube                  (((751637 6784081, 751612 6784096, 751557 6784097, 751537 6784077, 751531 67840~
## # ... with 91 more rows
…
On va ensuite ajouter l’information spatiale au fond de carte, en réalisant une jointure.

On part toujours du fond de carte pour la jointure.

On s’aperçoit alors qu’on a, pour chaque zone géographique, la difficulté de recrutement, en %.

bmo_dep_shp <- shp_dep %>%
  left_join(bmo_dep, by = c("DEP" = "dep"))

## Warning: Column `DEP`/`dep` joining factor and character vector, coercing into character vector

bmo_dep_shp 

## # A tibble: 101 x 7
##    DEP   nom        nb_proj_tot nb_proj_diff part_diff part_diff_class~                                geometry
##    <chr> <fct>            <dbl>        <dbl>     <dbl> <fct>                                 <MULTIPOLYGON [m]>
##  1 01    Ain             18464.       10859.      58.8 50-60 %          (((858244 6525233, 858160 6525176, 858~
##  2 02    Aisne           18418.        9851.      53.5 50-60 %          (((761608 6918644, 761618 6918596, 761~
##  3 03    Allier           9394.        4517.      48.1 40-50 %          (((646325 6582731, 646239 6582717, 646~
##  4 04    Alpes-de-~       9686.        4509.      46.6 40-50 %          (((972562 6298663, 972448 6298704, 972~
##  5 05    Hautes-Al~      12376.        5166.      41.7 40-50 %          (((957775 6377367, 957800 6377362, 957~
##  6 06    Alpes-Mar~      54174.       25030.      46.2 40-50 %          (((1028846 6276756, 1028832 6276766, 1~
##  7 07    Ardèche         15975.        7351.      46.0 40-50 %          (((816772 6361377, 816547 6361379, 816~
##  8 08    Ardennes         6233.        3422.      54.9 50-60 %          (((863817 6940406, 863638 6940492, 863~
##  9 09    Ariège           6454.        2327.      36.1 Moins de 40 %    (((576341 6173797, 576310 6173792, 575~
## 10 10    Aube            15068.        6773.      44.9 40-50 %          (((751637 6784081, 751612 6784096, 751~
## # ... with 91 more rows
…
