4 Données spatiales | Cartographie avec R à l’usage des statisticiens
…
shp_dep <- st_read(here("data/shp/FR_DEP_DOM_IDF.shp"))

## Reading layer `FR_DEP_DOM_IDF' from data source `D:\r-cartostat\data\shp\FR_DEP_DOM_IDF.shp' using driver `ESRI Shapefile'
## Simple feature collection with 109 features and 3 fields
## geometry type:  MULTIPOLYGON
## dimension:      XY
## bbox:           xmin: 101171.8 ymin: 5991180 xmax: 1242086 ymax: 7283392
## epsg (SRID):    NA
## proj4string:    +proj=lcc +lat_1=49 +lat_2=44 +lat_0=46.5 +lon_0=3 +x_0=700000 +y_0=6600000 +ellps=GRS80 +units=m +no_defs

On peut en visualiser le contenu. On observe qu’on a un fichier avec une colonne DEP, qui contient le code du département, ainsi qu’une colonne geometry qui contient les spécifications spatiales.

shp_dep

## # A tibble: 109 x 4
##    code_reg code_dep zoom_idf                                                                          geometry
##    <fct>    <fct>    <fct>                                                                   <MULTIPOLYGON [m]>
##  1 01       971      0        (((359926.3 6062079, 359394.4 6061722, 358910.3 6061434, 358481.5 6061211, 35811~
##  2 02       972      0        (((518712.6 6008907, 518514.6 6008430, 518289.9 6007830, 518041.7 6007087, 51777~
##  3 03       973      0        (((675660.3 6033423, 675054 6032020, 674433.4 6030537, 673804.1 6028989, 673177.~
##  4 04       974      0        (((835255.3 5992635, 833869 5993057, 832318.9 5993538, 830628.8 5994069, 828855.~
##  5 06       976      0        (((1012993 6063103, 1013066 6062251, 1013082 6061367, 1013047 6060461, 1012968 6~
##  6 11       75       0        (((645954.9 6860778, 645557.8 6861074, 645271.2 6861383, 645081.6 6861705, 64498~
##  7 11       75       1        (((1008050 7186125, 1007383 7186590, 1006738 7187093, 1006113 7187641, 1005523 7~
##  8 11       77       0        (((689514.7 6783195, 688908.1 6782948, 688323.5 6782740, 687759.3 6782598, 68721~
##  9 11       77       1        (((1106529 7018070, 1105773 7017682, 1105044 7017248, 1104328 7016771, 1103609 7~
## 10 11       78       0        (((615951.3 6817188, 615344.4 6817347, 614746.5 6817560, 614173.1 6817825, 61363~
## # ... with 99 more rows
…
On va ensuite ajouter l’information spatiale au fond de carte, en réalisant une jointure.

On part toujours du fond de carte pour la jointure.

On s’aperçoit alors qu’on a, pour chaque zone géographique, la difficulté de recrutement, en %.

bmo_dep_shp <- shp_dep %>%
  left_join(bmo_dep, by = c("code_dep" = "dep"))

## Warning: Column `code_dep`/`dep` joining factor and character vector, coercing into character vector

bmo_dep_shp 

## # A tibble: 109 x 8
##    code_reg code_dep zoom_idf nb_proj_tot nb_proj_diff part_diff part_diff_classes                     geometry
##    <fct>    <chr>    <fct>          <dbl>        <dbl>     <dbl> <fct>                       <MULTIPOLYGON [m]>
##  1 01       971      0             12938.        5249.      40.6 40-50 %           (((359926.3 6062079, 359394~
##  2 02       972      0             11407.        5307.      46.5 40-50 %           (((518712.6 6008907, 518514~
##  3 03       973      0              6677.        3296.      49.4 40-50 %           (((675660.3 6033423, 675054~
##  4 04       974      0             31667.       10310.      32.6 Moins de 40 %     (((835255.3 5992635, 833869~
##  5 06       976      0              5309.        2259.      42.6 40-50 %           (((1012993 6063103, 1013066~
##  6 11       75       0            173662.       75181.      43.3 40-50 %           (((645954.9 6860778, 645557~
##  7 11       75       1            173662.       75181.      43.3 40-50 %           (((1008050 7186125, 1007383~
##  8 11       77       0             34753.       17111.      49.2 40-50 %           (((689514.7 6783195, 688908~
##  9 11       77       1             34753.       17111.      49.2 40-50 %           (((1106529 7018070, 1105773~
## 10 11       78       0             47079.       25389.      53.9 50-60 %           (((615951.3 6817188, 615344~
## # ... with 99 more rows
…
