3 Recoder vos données | Cartographie avec R à l’usage des statisticiens
…
On procédera ainsi ici.

3.2 Données

Pour le reste de l’explication, on utilisera les données iris, présentes de base dans R.

iris <- as_tibble(iris)

iris

## # A tibble: 150 x 5
##    Sepal.Length Sepal.Width Petal.Length Petal.Width Species
##           <dbl>       <dbl>        <dbl>       <dbl> <fct>  
##  1          5.1         3.5          1.4         0.2 setosa 
##  2          4.9         3            1.4         0.2 setosa 
##  3          4.7         3.2          1.3         0.2 setosa 
##  4          4.6         3.1          1.5         0.2 setosa 
##  5          5           3.6          1.4         0.2 setosa 
##  6          5.4         3.9          1.7         0.4 setosa 
##  7          4.6         3.4          1.4         0.3 setosa 
##  8          5           3.4          1.5         0.2 setosa 
##  9          4.4         2.9          1.4         0.2 setosa 
## 10          4.9         3.1          1.5         0.1 setosa 
## # ... with 140 more rows

3.3 Modifier des colonnes : mutate

Il s’agit de modifier une colonne. On donne le nom de la nouvelle colonne puis l’opération de création à partir de l’ancienne, avec un = entre les deux. La nouvelle colonne peut avoir le même nom que l’ancienne et la remplace alors.

iris %>% 
  mutate(Sepal.Length_2 = Sepal.Length * 2,
         Sepal.Length_4 = Sepal.Length_2 * 2)

## # A tibble: 150 x 7
##    Sepal.Length Sepal.Width Petal.Length Petal.Width Species Sepal.Length_2 Sepal.Length_4
##           <dbl>       <dbl>        <dbl>       <dbl> <fct>            <dbl>          <dbl>
##  1          5.1         3.5          1.4         0.2 setosa            10.2           20.4
##  2          4.9         3            1.4         0.2 setosa             9.8           19.6
##  3          4.7         3.2          1.3         0.2 setosa             9.4           18.8
##  4          4.6         3.1          1.5         0.2 setosa             9.2           18.4
##  5          5           3.6          1.4         0.2 setosa            10             20  
##  6          5.4         3.9          1.7         0.4 setosa            10.8           21.6
##  7          4.6         3.4          1.4         0.3 setosa             9.2           18.4
##  8          5           3.4          1.5         0.2 setosa            10             20  
##  9          4.4         2.9          1.4         0.2 setosa             8.8           17.6
## 10          4.9         3.1          1.5         0.1 setosa             9.8           19.6
## # ... with 140 more rows

On peut enchaîner plus opérations, en les séparant par une virgule, même sur des colonnes crées juste avant.

3.4 Filtrer des valeurs : filter

Cela permet de spécifier quelles valeurs on souhaite. On utilisera les opérateurs d’égalité ==, de différence != ou d’inclusion %in%.

iris %>% 
  filter(Species == "setosa")

## # A tibble: 50 x 5
##    Sepal.Length Sepal.Width Petal.Length Petal.Width Species
##           <dbl>       <dbl>        <dbl>       <dbl> <fct>  
##  1          5.1         3.5          1.4         0.2 setosa 
##  2          4.9         3            1.4         0.2 setosa 
##  3          4.7         3.2          1.3         0.2 setosa 
##  4          4.6         3.1          1.5         0.2 setosa 
##  5          5           3.6          1.4         0.2 setosa 
##  6          5.4         3.9          1.7         0.4 setosa 
##  7          4.6         3.4          1.4         0.3 setosa 
##  8          5           3.4          1.5         0.2 setosa 
##  9          4.4         2.9          1.4         0.2 setosa 
## 10          4.9         3.1          1.5         0.1 setosa 
## # ... with 40 more rows

On peut spécifier plusieurs conditions avec & (et) ou | (ou) et les parenthèses.

3.5 Sélectionner des colonnes : select

Si l’on ne veut conserver que certaines colonnes, on peut les indiquer grâce à ce verbe.

iris %>% 
  select(Species, Sepal.Length)

## # A tibble: 150 x 2
##    Species Sepal.Length
##    <fct>          <dbl>
##  1 setosa           5.1
##  2 setosa           4.9
##  3 setosa           4.7
##  4 setosa           4.6
##  5 setosa           5  
##  6 setosa           5.4
##  7 setosa           4.6
##  8 setosa           5  
##  9 setosa           4.4
## 10 setosa           4.9
## # ... with 140 more rows

Il fonctionne aussi en négative avec un - devant le nom de la colonne.

L’utilisation de certaines fonctions type starts_with() permet de gagner en efficacité.

3.6 Trier : arrange

On trie. Pour faire dans le sens inverse, il faut utiliser arrange(desc(x)).

iris %>% 
  arrange(Petal.Width)

## # A tibble: 150 x 5
##    Sepal.Length Sepal.Width Petal.Length Petal.Width Species
##           <dbl>       <dbl>        <dbl>       <dbl> <fct>  
##  1          4.9         3.1          1.5         0.1 setosa 
##  2          4.8         3            1.4         0.1 setosa 
##  3          4.3         3            1.1         0.1 setosa 
##  4          5.2         4.1          1.5         0.1 setosa 
##  5          4.9         3.6          1.4         0.1 setosa 
##  6          5.1         3.5          1.4         0.2 setosa 
##  7          4.9         3            1.4         0.2 setosa 
##  8          4.7         3.2          1.3         0.2 setosa 
##  9          4.6         3.1          1.5         0.2 setosa 
## 10          5           3.6          1.4         0.2 setosa 
## # ... with 140 more rows
…
3.8 Renommer : rename

Cela sert à renommer des colonnes.

iris %>% 
  rename(a = Species)

## # A tibble: 150 x 5
##    Sepal.Length Sepal.Width Petal.Length Petal.Width a     
##           <dbl>       <dbl>        <dbl>       <dbl> <fct> 
##  1          5.1         3.5          1.4         0.2 setosa
##  2          4.9         3            1.4         0.2 setosa
##  3          4.7         3.2          1.3         0.2 setosa
##  4          4.6         3.1          1.5         0.2 setosa
##  5          5           3.6          1.4         0.2 setosa
##  6          5.4         3.9          1.7         0.4 setosa
##  7          4.6         3.4          1.4         0.3 setosa
##  8          5           3.4          1.5         0.2 setosa
##  9          4.4         2.9          1.4         0.2 setosa
## 10          4.9         3.1          1.5         0.1 setosa
## # ... with 140 more rows
…
Le count est un raccourci pour summarise(n = n()).

3.10 Joindre des tables : *_join

On peut joindre des tables ayant un identifiant commune avec inner_join, left_join, right_join ou full_join qui fonctionnent comme en SAS.

iris2 <- iris %>% 
  mutate(Petal.Length_2 = Petal.Length * 2) %>% 
  select(Species, Petal.Length_2)

iris %>% 
  left_join(iris2, by = c("Species"))

## # A tibble: 7,500 x 6
##    Sepal.Length Sepal.Width Petal.Length Petal.Width Species Petal.Length_2
##           <dbl>       <dbl>        <dbl>       <dbl> <fct>            <dbl>
##  1          5.1         3.5          1.4         0.2 setosa             2.8
##  2          5.1         3.5          1.4         0.2 setosa             2.8
##  3          5.1         3.5          1.4         0.2 setosa             2.6
##  4          5.1         3.5          1.4         0.2 setosa             3  
##  5          5.1         3.5          1.4         0.2 setosa             2.8
##  6          5.1         3.5          1.4         0.2 setosa             3.4
##  7          5.1         3.5          1.4         0.2 setosa             2.8
##  8          5.1         3.5          1.4         0.2 setosa             3  
##  9          5.1         3.5          1.4         0.2 setosa             2.8
## 10          5.1         3.5          1.4         0.2 setosa             3  
## # ... with 7,490 more rows
…
iris_large %>% 
  pivot_longer(cols = everything())

## # A tibble: 150 x 2
##    name  value 
##    <chr> <fct> 
##  1 1     setosa
##  2 2     setosa
##  3 3     setosa
##  4 4     setosa
##  5 5     setosa
##  6 6     setosa
##  7 7     setosa
##  8 8     setosa
##  9 9     setosa
## 10 10    setosa
## # ... with 140 more rows

3.12 En dehors de dplyr

3.12.1 Discrétiser : cut

Cette fonction permet de découper une valeur numérique en classes. On peut l’utiliser dans un mutate.

iris %>% 
  mutate(Sepal.Length_cut = cut(Sepal.Length, 
                                breaks = c(0, 1, 2, 5, 8, 10),
                                include.lowest = TRUE))

## # A tibble: 150 x 6
##    Sepal.Length Sepal.Width Petal.Length Petal.Width Species Sepal.Length_cut
##           <dbl>       <dbl>        <dbl>       <dbl> <fct>   <fct>           
##  1          5.1         3.5          1.4         0.2 setosa  (5,8]           
##  2          4.9         3            1.4         0.2 setosa  (2,5]           
##  3          4.7         3.2          1.3         0.2 setosa  (2,5]           
##  4          4.6         3.1          1.5         0.2 setosa  (2,5]           
##  5          5           3.6          1.4         0.2 setosa  (2,5]           
##  6          5.4         3.9          1.7         0.4 setosa  (5,8]           
##  7          4.6         3.4          1.4         0.3 setosa  (2,5]           
##  8          5           3.4          1.5         0.2 setosa  (2,5]           
##  9          4.4         2.9          1.4         0.2 setosa  (2,5]           
## 10          4.9         3.1          1.5         0.1 setosa  (2,5]           
## # ... with 140 more rows

On lui précise les découpages avec : breaks =, les noms avec labels =. Ces fonctions prennent un vecteur . On conserve la borne inférieure avec include.lowest = TRUE.

3.12.2 Recoder des facteurs : fct_* de forcats

Pour recoder un facteur on utilise fct_collapse si on veut réduire le nombre de niveaux.

iris %>%
  mutate(Species_regroup = fct_collapse(
    Species,
    "virginica" = "virginica",
    "Autres" = c("setosa", "versicolor")
  ))

## # A tibble: 150 x 6
##    Sepal.Length Sepal.Width Petal.Length Petal.Width Species Species_regroup
##           <dbl>       <dbl>        <dbl>       <dbl> <fct>   <fct>          
##  1          5.1         3.5          1.4         0.2 setosa  Autres         
##  2          4.9         3            1.4         0.2 setosa  Autres         
##  3          4.7         3.2          1.3         0.2 setosa  Autres         
##  4          4.6         3.1          1.5         0.2 setosa  Autres         
##  5          5           3.6          1.4         0.2 setosa  Autres         
##  6          5.4         3.9          1.7         0.4 setosa  Autres         
##  7          4.6         3.4          1.4         0.3 setosa  Autres         
##  8          5           3.4          1.5         0.2 setosa  Autres         
##  9          4.4         2.9          1.4         0.2 setosa  Autres         
## 10          4.9         3.1          1.5         0.1 setosa  Autres         
## # ... with 140 more rows
…
